{
	"info": {
		"_postman_id": "f80bda80-921b-4419-bcca-90933c0d87d6",
		"name": "Socrata Take Home Coding Challenge",
		"schema": "https://schema.getpostman.com/json/collection/v2.1.0/collection.json"
	},
	"item": [
		{
			"name": "GET Rovers OK",
			"event": [
				{
					"listen": "test",
					"script": {
						"exec": [
							"const schema = {\r",
							"    \"type\": \"object\",\r",
							"    \"properties\": {\r",
							"        \"rovers\": {\r",
							"            \"type\": \"array\",\r",
							"            \"items\": [\r",
							"                {\r",
							"                    \"type\": \"object\",\r",
							"                    \"properties\": {\r",
							"                        \"coordinates\": {\r",
							"                            \"type\": \"string\"\r",
							"                        },\r",
							"                        \"direction\": {\r",
							"                            \"type\": \"string\"\r",
							"                        }\r",
							"                    },\r",
							"                    \"required\": [\r",
							"                        \"coordinates\",\r",
							"                        \"direction\"\r",
							"                    ]\r",
							"                }\r",
							"            ]\r",
							"        }\r",
							"    },\r",
							"    \"required\": [\"rovers\"]\r",
							"}\r",
							"\r",
							"pm.test(\"Status code is 200\", function () {\r",
							"    pm.response.to.have.status(200);\r",
							"});\r",
							"\r",
							"pm.test(\"Response JSON body is constructed correctly\", function() {\r",
							"    pm.response.to.be.json;\r",
							"    pm.response.to.have.jsonSchema(schema);\r",
							"});"
						],
						"type": "text/javascript"
					}
				}
			],
			"protocolProfileBehavior": {
				"disableBodyPruning": true
			},
			"request": {
				"method": "GET",
				"header": [],
				"body": {
					"mode": "formdata",
					"formdata": [
						{
							"key": "input",
							"type": "file",
							"src": "/C:/Users/bresh/Downloads/sample.txt",
							"disabled": true
						},
						{
							"key": "input",
							"type": "file",
							"src": "/C:/Users/bresh/Downloads/sample2.txt",
							"disabled": true
						}
					]
				},
				"url": {
					"raw": "http://localhost:8080/rovers?input={{valid_input}}",
					"protocol": "http",
					"host": [
						"localhost"
					],
					"port": "8080",
					"path": [
						"rovers"
					],
					"query": [
						{
							"key": "input",
							"value": "{{valid_input}}"
						}
					]
				}
			},
			"response": []
		},
		{
			"name": "GET Rovers Bad Request - Bad Grid Values",
			"event": [
				{
					"listen": "test",
					"script": {
						"exec": [
							"pm.test(\"Status code is 400\", function () {\r",
							"    pm.expect(pm.response.code).equal(400);\r",
							"});\r",
							"\r",
							"pm.test(\"Response message should be correct one\", function() {\r",
							"    pm.response.to.be.json;\r",
							"    pm.expect(pm.response.text()).to.contain(\"non-negative integers\");\r",
							"});"
						],
						"type": "text/javascript"
					}
				}
			],
			"request": {
				"method": "GET",
				"header": [],
				"url": {
					"raw": "http://localhost:8080/rovers?input={{bad_input_grid}}",
					"protocol": "http",
					"host": [
						"localhost"
					],
					"port": "8080",
					"path": [
						"rovers"
					],
					"query": [
						{
							"key": "input",
							"value": "{{bad_input_grid}}"
						}
					]
				}
			},
			"response": []
		},
		{
			"name": "GET Rovers Bad Request - Bad Rover Placement",
			"event": [
				{
					"listen": "test",
					"script": {
						"exec": [
							"pm.test(\"Status code is 400\", function () {\r",
							"    pm.expect(pm.response.code).equal(400);\r",
							"});\r",
							"\r",
							"pm.test(\"Response message should be correct one\", function() {\r",
							"    pm.response.to.be.json;\r",
							"    pm.expect(pm.response.text()).to.contain(\"non-negative integers\");\r",
							"});"
						],
						"type": "text/javascript"
					}
				}
			],
			"request": {
				"method": "GET",
				"header": [],
				"url": {
					"raw": "http://localhost:8080/rovers?input={{bad_input_rover_placement}}",
					"protocol": "http",
					"host": [
						"localhost"
					],
					"port": "8080",
					"path": [
						"rovers"
					],
					"query": [
						{
							"key": "input",
							"value": "{{bad_input_rover_placement}}"
						}
					]
				}
			},
			"response": []
		},
		{
			"name": "GET Rovers Bad Request - Bad Rover Bounds",
			"event": [
				{
					"listen": "test",
					"script": {
						"exec": [
							"pm.test(\"Status code is 400\", function () {\r",
							"    pm.expect(pm.response.code).equal(400);\r",
							"});\r",
							"\r",
							"pm.test(\"Response message should be correct one\", function() {\r",
							"    pm.response.to.be.json;\r",
							"    pm.expect(pm.response.text()).to.contain(\"within grid bounds\");\r",
							"});"
						],
						"type": "text/javascript"
					}
				}
			],
			"request": {
				"method": "GET",
				"header": [],
				"url": {
					"raw": "http://localhost:8080/rovers?input={{bad_input_rover_bounds}}",
					"protocol": "http",
					"host": [
						"localhost"
					],
					"port": "8080",
					"path": [
						"rovers"
					],
					"query": [
						{
							"key": "input",
							"value": "{{bad_input_rover_bounds}}"
						}
					]
				}
			},
			"response": []
		},
		{
			"name": "GET Rovers Bad Request - Bad Rover Movement",
			"event": [
				{
					"listen": "test",
					"script": {
						"exec": [
							"pm.test(\"Status code is 400\", function () {\r",
							"    pm.expect(pm.response.code).equal(400);\r",
							"});\r",
							"\r",
							"pm.test(\"Response message should be correct one\", function() {\r",
							"    pm.response.to.be.json;\r",
							"    pm.expect(pm.response.text()).to.contain(\"alphabetic characters\");\r",
							"});"
						],
						"type": "text/javascript"
					}
				}
			],
			"request": {
				"method": "GET",
				"header": [],
				"url": {
					"raw": "http://localhost:8080/rovers?input={{bad_input_rover_movement}}",
					"protocol": "http",
					"host": [
						"localhost"
					],
					"port": "8080",
					"path": [
						"rovers"
					],
					"query": [
						{
							"key": "input",
							"value": "{{bad_input_rover_movement}}"
						}
					]
				}
			},
			"response": []
		}
	]
}